name,first_name,middle_name,last_name,nickname,email
Blackout,,,,Blackout,blackoutmiami@gmail.com
Abdiel Vivancos,Abdiel,,Vivancos,,actorabdiel@gmail.com
Adam Fonta,Adam,,Fonta,,adamfonta@gmail.com
Adam Parson,Adam,,Parson,,Adam.Parson@sigconsult.com
Alfredo Rivera,Alfredo,,Rivera,,alfredopeter.rivera@gmail.com
Adianez crespo,Adianez,,crespo,,acverdecia21@gmail.com
Adriana C. Sánchez,Adriana,C.,Sánchez,,adriacsanchez@gmail.com
Arturo Fernandez,Arturo,,Fernandez,,af@arfernandez.com
Akshay Jain,Akshay,,Jain,,akshay.jain@ampcus.com
Alex Finnie,Alex,,Finnie,,afinnie4@gmail.com
Allison Jenetopulos,Allison,,Jenetopulos,,ajenetopulos@gmail.com
Alma Hoyos,Alma,,Hoyos,,alma_hoyos08@icloud.com
Alvaro Velasquez,Alvaro,,Velasquez,,Alvarvel567@yahoo.com
Amit Saha,Amit,,Saha,,asaha@cloudeeva.com
Alex Moir,Alex,,Moir,,amoir@cca.edu
Anasthasia Grand-Pierre,Anasthasia,,Grand-Pierre,,anasthasia.gp@gmail.com
Andrea Rossi,Andrea,,Rossi,,andarossi22@gmail.com
Andrés Brusco,Andrés,,Brusco,,andres.brusco@globant.com
Andrew Bennett,Andrew,,Bennett,,andrew@bareye.com
Angela Liu,Angela,,Liu,,angela.liu@compugain.com
Ankadine Jean,Ankadine,,Jean,,ajean1120@gmail.com
Anna Castellanos,Anna,,Castellanos,,anna.castellanos@globant.com
"Venezia, Anthony",Anthony,,Venezia,,avenezia@sigconsult.com
Art Fernandez,Art,,Fernandez,,artfer305@gmail.com
Ashleigh Anderson,Ashleigh,,Anderson,,ash@shiver.net
Ashley Henry,Ashley,,Henry,,alyssahen2021@gmail.com
Ashley Huergo,Ashley,,Huergo,,ashleyhuergo@gmail.com
Aubrie Rodriguez,Aubrie,,Rodriguez,,aubrierodriguez89@gmail.com
Beatrice D. Vorbe,Beatrice,D.,Vorbe,,bdvorbe@hotmail.com
Bells Atlas,,,,Bells Atlas,bellsatlas@gmail.com
Benicka Grant,Benicka,,Grant,,benickajgrant@gmail.com
Bianca Diosdado,Bianca,,Diosdado,,bdiosdado@octagontechnologystaffing.com
Bianca Mestre-Cabrero,Bianca,,Mestre-Cabrero,,beemestreyoga@gmail.com
Blake Nuzzo,Blake,,Nuzzo,,Blake.Nuzzo@insightglobal.com
Brianna Dooling,Briana,,Dooling,,briannadooling@yahoo.com
Brittany Aquart,Brittany,,Aquart,,brittanyaquart@gmail.com
Carlos Cruz,Carlos,,Cruz,,ccruz@teckpert.com
Caro Hernandez,Caro,,Hernandez,,carodez@gmail.com
Cathryn Garcia-Menocal,Cathryn,,Garcia-Menocal,,cathryngm@gmail.com
Charles Ohana,Charles,,Ohana,,cohana@gmail.com
Charlie Trevino,Charlie,,Trevino,,Charlie.Trevino@insightglobal.com
Chelsea Williams,Chelsea,,Williams,,contactchelseawilliams@gmail.com
Christina Swayne,Christina,,Swayne,,Christina.swayne@rht.com
Chrystie Martinez,Chrystie,,Martinez,,chrystiemartinez@gmail.com
Cindy McCool,Cindy,,McCool,,cmccool@strategicstaff.com
Clara Fath,Clara,,Fath,,clarafath@gmail.com
Corrine Stevie,Corrine,,Stevie,,Corrine.Stevie@gmail.com
Cynthia Fleischmann,Cynthia,,Fleischmann,,cynthia@cynthiafleischmann.com
David Cruz,David,,Cruz,,Davidcruzdrums@gmail.com
"Alvarado, Daniela",Daniela,,Alvarado,,Daniela.Alvarado@rht.com
Darrah Treleaven,Darrah,,Treleaven,,treleaven.darrah@gmail.com
David Cruz,David,,Cruz,,just2l82wait@yahoo.com
David Thacker,David,,Thacker,,david.thacker@randstadusa.com
Debra McCarthy,Debra,,McCarthy,,Debra.McCarthy@reliabillsolutions.com
Delphina Marin,Delphina,,Marin,,delphinamarin@gmail.com
Dominique Delcorso,Dominique,,Delcorso,,Dominique.Delcorso@insightglobal.com
Ed Grubb,Ed,,Grubb,,egrubb@tekpartners.com
Edgar Serret,Edgar,,Serret,,edgarserret@gmail.com
Edouard Duval,Edouard,,Duval,,edouardmiamiart@gmail.com
Elizabeth Becker,Elizabeth,,Becker,,elizabethb@protechfl.com
Elliott McCarthy,Elliott,,McCarthy,,elliott.mccarthy@gmail.com
Emanuelle Duval,Emanuelle,,Duval,,emmanuelleduval@gmail.com
Eric McKenney,Eric,,McKenney,,ERIC@skateparkoftampa.com
Erica Fayth Jensen,Erica,Fayth,Jensen,,fayth2fay@yahoo.com
Erik Mendelson,Erik,,Mendelson,,erik@uremixapp.com
Ezra Bookman,Ezra,,Bookman,,ejbookman@gmail.com
Frank Kalbermatten,Frank,,Kalbermatten,,frank.kalbermatten@globant.com
Gaston Acosta,Gaston,,Acosta,,gastonhacosta@gmail.com
Giovanna Avello,Giovanna,,Avello,,gavello15@gmail.com
Guillermo Alvarez-Borras,Guillermo,,Alvarez-Borras,,guillermo.borras@globant.com
Guy Sperduto,Guy,,Sperduto,,gsperduto@accountinglinkusa.com
Guy-Robert Duval,Guy-Robert,,Duval,,guyduval@gmail.com
Hannah B,Hannah,,B,,hannahbenitez@yahoo.com
Heather Piernick,Heather,,Piernick,,hpiernick@octagontechnologystaffing.com
Hector Vargas,Hector,,Vargas,,hvargas@ascendo.com
Ivan Malespin,Ivan,,Malespin,,ivanmalespin@yahoo.com
Ivy Ledon,Ivy,,Ledon,,ivyledon@gmail.com
Jamie Hinnant,Jamie,,Hinnant,,Jam7390@aol.com
Jamie Mann,Jamie,,Mann,,JamieEMann@gmail.com
Jason Johnson,Jason,,Johnson,,jason@jasonjjohnson.com
Jaynee Silvers,Jaynee,,Silvers,,JayneeSinger@gmail.com
Jhimere Craigen,Jhimere,,Craigen,,Jcraigen23@gmail.com
Jennifer Taussig,Jennifer,,Taussig,,Jennifer.Taussig@cybercoders.com
Jessica Pan,Jessica,,Pan,,jessica.pan@saggezza.com
Jessica Yera,Jessica,,Yera,,jessicayera@gmail.com
"Escobar, Jimmy",Jimmy,,Escobar,,jimmy.escobar@rht.com
Jody Ann Henry,Jody,Ann,Henry,Jody Ann,msjodyannhenry@gmail.com
Jordyn Latham,Jordyn,,Latham,,jlatham@tekpartners.com
Jorge Luis Modolell,Jorge,Luis,Modolell,,jorgemodolell@gmail.com
Justin Tredo,Justin,,Tredo,,justin.tredo@axelon.com
Kara Riege,Kara,,Riege,,karasears2012@gmail.com
Katriana Nugent,Katriana,,Nugent,,katriana.nugent@gmail.com
Katrina Fraga,Katrina,,Fraga,,katrinafraga@hotmail.com
Kayla Johansson,Kayla,,Johansson,,Kayla.Johansson@insightglobal.com
Kellie Mory,Kellie,,Mory,,Kellie.Mory@insightglobal.com
Kelly Peterson,Kelly,,Peterson,,kpeterson@sigconsult.com
"Patterson, Kenneth",Kenneth,,Patterson,,KennethPatterson@miamibeachfl.gov
Kristen Cruz,Kristen,,Cruz,,kristen@kcruz.com
Kristina Boland,Kristina,,Boland,,kristina.boland@vitaver.com
Kristina Pouya,Kristina,,Pouya,,Kristina.Pouya@rht.com
Kyle Richardson,Kyle,,Richardson,,kyler@consultis.com
Laura Chauvet,Laura,,Chauvet,,Lauravchauvet@hotmail.com
Lauren Gray,Lauren,,Gray,,thelaurengrays@gmail.com
Lennart Lopin,Lennart,,Lopin,,lennart@dearreader.com
"Herrup, Lindsey",Lindsey,,Herrup,,LHerrup@kforce.com
Lissette Rivero,Lissette,,Rivero,,lissetteirivero@yahoo.com
Louise Medlin,Louise,,Medlin,,louise@accountinglinkusa.com
Lourdes Gonzalez,Lourdes,,Gonzalez,,lggonzalez@ncl.com
Jackie Cubero,Jackie,,Cubero,,mcubero@ncl.com
Nicholas Mandri,Nicholas,,Mandri,Nick,shreddingmulholland@gmail.com
Marie Franqui,Marie,,Franqui,,marie@gozendo.com
Marion Mokhtari,Marion,,Mokhtari,,m.mokhtari@huxley.com
Mark Stein,Mark,,Stein,,mark@marksteinlaw.com
Marlina Diaz,Marlina,,Diaz,,mdiaz071@gmail.com
Matthew Wideman,Matthew,,Wideman,,matthewdwideman@gmail.com
Mauricio Cano,Mauricio,,Cano,,mauricio27mc@live.com
Mauricio Montaldo,Mauricio,,Montaldo,,Mauricio@sherlocktalent.com
Melissa Fernandez,Melissa,,Fernandez,,mmelifern@gmail.com
Melissa Leandro,Melissa,,Leandro,,melissaleandro89@gmail.com
Melissa Ruiz,Melissa,,Ruiz,,mruiz@billcunninghamshow.com
Miah Ariel Jones,Miah,Ariel,Jones,,miaharieljones@gmail.com
Michael Splittorf,Michael,,Splittorf,,michael.splittorf@rht.com
Michael Uria,Michael,,Uria,,michael.uria@rht.com
Michael Waas,Michael,,Waas,,mwaas1989@gmail.com
Michelle Atherton,Michelle,,Atherton,,m.atherton2@gmail.com
Michelle Fernandez,Michelle,,Fernandez,,micardez@gmail.com
Michelle Gomez,Michelle,,Gomez,,michelle@creativeunionsllc.com
Mohd Bilal Uddin,Mohd,Bilal,Uddin,,Bilal@caresoftinc.com
Mona Joy,Mona,,Joy,,mona@engagestaff.com
Moobin Shaikh,Moobin,,Shaikh,,MoobinS@aptask.com
Mr. Alexis,,,,Mr. Alexis,mr.alexisbeats@gmail.com
Natalie Pena,Natalie,,Pena,,natalie.pena@rht.com
Nick Talwar,Nick,,Talwar,,ram.talwar@gmail.com
Nicole del Pino,Nicole,,del Pino,,delpinonicole02@gmail.com
Nicolette Wood,Nicolette,,Wood,,nicolettepwood@gmail.com
Nina Duval,Nina,,Duval,,msteapot@me.com
Pablo BUTCHER,Pablo,,BUTCHER,,pablo.butcher@wanadoo.fr
Paul Mancillas,Paul,,Mancillas,,p.mancillas@huxley.com
Paulette O'Sullivan,Paulette,,O'Sullivan,,osullivan@stats.com
Pavel Raphael,Pavel,,Raphael,,pavel.raphael@rht.com
Peter Funderburk,Peter,,Funderburk,,ppierrefun@gmail.com
Preet Sharma,Preet,,Sharma,,preet@hanstaffing.com
Producer Chabu,Producer,,Chabu,,producerchabu@gmail.com
Rachel Rodriguez,Rachel,,Rodriguez,,rachel.rodriguez305@gmail.com
Rakesh Mistry,Rakesh,,Mistry,,rmistry@ascendo.com
Raquel Villagra,Raquel,,Villagra,,raquelvillagra@gmail.com
Reed Kellick,Reed,,Kellick,,Reed.Kellick@cybercoders.com
Sam Ellin,Sam,,Ellin,,sellin@sdsol.com
Sam,,,,Sam,sam@digitalvalley.io
Samantha Bowen,Samantha,,Bowen,,samantha.bowen@gmail.com
Samantha Trippy,Samantha,,Trippy,Sam,samanthatrippy2016@u.northwestern.edu
Samantha Fraga,Samantha,,Fraga,,samanthafraga@hotmail.com
Sarah Boynton,Sarah,,Boynton,,sarahdungood@gmail.com
Sasha N,Sasha,,N,,sashanunez08@gmail.com
Scott Ostrin,Scott,,Ostrin,,sostrin@me.com
Shayeon Hawkins,Shayeon,,Hawkins,,hawkinsunion15@gmail.com
Sean Karshis,Sean,,Karshis,,sean@originalimpressions.com
Shana Ramsook,Shana,,Ramsook,Kizzan,kizzram@gmail.com
Shaporia Moore,Shaporia,,Moore,,shaporia.moore@rht.com
Sheena Klimoski,Sheena,,Klimoski,,sheenaklimoski@gmail.com
Shelly R. Nadler,Shelly,R.,Nadler,,stroth@godaddy.com
Sonia Kumar,Sonia,,Kumar,,sonia.kumar@braintreeus.com
Stefan Miller,Stefan,,Miller,,stefan@bocadirecthire.com
Stephen Anthony,Stephen,,Anthony,,stephenanthony12@gmail.com
Tara Brown,Tara,,Brown,,tarapbrown47@gmail.com
Taylor O'Brien,Taylor,,O'Brien,,TOBrien@kforce.com
Tevi Eber,Tevi,,Eber,,tevieber@gmail.com
Thad Duval,Thad,,Duval,Tad,thadduval.lavuD@gmail.com
Thomas Avitable,Thomas,,Avitable,,tavitable@sigconsult.com
Thomas Laske,Thomas,,Laske,,thomas.laske@rht.com
Thomas Perry,Thomas,,Perry,,thomassageperry@gmail.com
Thomas Wolcott,Thomas,,Wolcott,,ph03n1x.wiz@gmail.com
Tom Daily II,Tom,,Daily,Tom,tdaily2nd@gmail.com
Tommy Bussey,Tommy,,Bussey,,tommy@ajtmedia.com
Vickie Stevens,Vickie,,Stevens,,vstevens@sonomapartners.com
Victor LeJeune,Victor,,LeJeune,,vlejeune1@gmail.com
WYTRINA WRIGHT,WYTRINA,,WRIGHT,Wyntrina,wywright7@gmail.com
Zach Biggs,Zach,,Biggs,,zbiggs@tekpartners.com
Zach Bratkovich,Zach,,Bratkovich,,zbratkovich@apexsystemsinc.com
Zach Gouz,Zach,,Gouz,,zachgouz@gmail.com